{
  "@id": "self-monitoring",
  "@type": "sp:ServerConfiguration",
  "creator": null,
  "dateCreated": "2016-04-10T16:12:30.286Z",
  "editor": null,
  "dateModified": null,
  "version": "0.1",
  "guiConfig":{
    "login": {
      "uri": "https://streetsmart.parkeon.com/sit2/ui/dashboard/login"
    },
    "poc":{
      "searchItems": {
        "uri": "https://streetsmart.parkeon.com/spider/poc-service/v1/items/_search",
        "timeout": "PT5S"
      }
    },
    "view":{
      "progressBarTimer": "PT.25S"
    },
    "flips":{
      "saveSessionTracking": true
    },
    "shortUris":{
      "sss": "https://streetsmart.parkeon.com/sit2/"
    }
  },
  "_eTag": "\"309-w3DZAPUjVYfjVP7E2dqPAQ\"",
  "serverPort": 5000
}